{
    "mvn2nix": {
        "branch": "master",
        "description": "Easily package your Maven Java application with the Nix package manager.",
        "homepage": "",
        "owner": "fzakaria",
        "repo": "mvn2nix",
        "rev": "3af3a7e02bce9cccc77c582a589d742e4fb8540e",
        "sha256": "0v5jv129a8wg7hgpcjgkvi8kadmh4x8gm9vacb35jlwyvhf00kal",
        "type": "tarball",
        "url": "https://github.com/fzakaria/mvn2nix/archive/3af3a7e02bce9cccc77c582a589d742e4fb8540e.tar.gz",
        "url_template": "https://github.com/<owner>/<repo>/archive/<rev>.tar.gz"
    }
}
